{"uid":"275193f53b223d9b","name":"Send GET request to /breeds without query parameters","fullName":"Send GET request to /breeds without query parameters","historyId":"2f1444fc0e612098a6b5b5a4228b1d0d","time":{"start":1749392776081,"stop":1749392776347,"duration":266},"status":"passed","flaky":false,"newFailed":false,"newBroken":false,"newPassed":false,"retriesCount":0,"retriesStatusChange":false,"beforeStages":[],"testStage":{"status":"passed","steps":[{"name":"Given the API is available","time":{"start":1749392776093,"stop":1749392776346,"duration":253},"status":"passed","steps":[{"name":"accessAPI","time":{"start":1749392776094,"stop":1749392776162,"duration":68},"status":"passed","steps":[{"name":"request (\"{ method: 'GET', url: '/' }\")","time":{"start":1749392776096,"stop":1749392776161,"duration":65},"status":"passed","steps":[],"attachments":[],"parameters":[],"shouldDisplayMessage":false,"stepsCount":0,"attachmentsCount":0,"hasContent":false,"attachmentStep":false}],"attachments":[],"parameters":[],"shouldDisplayMessage":false,"stepsCount":1,"attachmentsCount":0,"hasContent":true,"attachmentStep":false},{"name":"assert expected **200** to equal **200**","time":{"start":1749392776165,"stop":1749392776165,"duration":0},"status":"passed","steps":[],"attachments":[],"parameters":[{"name":"actual","value":"200"},{"name":"expected","value":"200"}],"shouldDisplayMessage":false,"stepsCount":0,"attachmentsCount":0,"hasContent":true,"attachmentStep":false}],"attachments":[],"parameters":[],"shouldDisplayMessage":false,"stepsCount":3,"attachmentsCount":0,"hasContent":true,"attachmentStep":false},{"name":"When I send a GET request to endpoint breeds","time":{"start":1749392776170,"stop":1749392776346,"duration":176},"status":"passed","steps":[{"name":"accessBreedsEndpoint","time":{"start":1749392776172,"stop":1749392776240,"duration":68},"status":"passed","steps":[{"name":"request (\"{ method: 'GET', url: '/breeds' }\")","time":{"start":1749392776173,"stop":1749392776240,"duration":67},"status":"passed","steps":[],"attachments":[],"parameters":[],"shouldDisplayMessage":false,"stepsCount":0,"attachmentsCount":0,"hasContent":false,"attachmentStep":false}],"attachments":[],"parameters":[],"shouldDisplayMessage":false,"stepsCount":1,"attachmentsCount":0,"hasContent":true,"attachmentStep":false},{"name":"as (\"breedsResponse\")","time":{"start":1749392776240,"stop":1749392776241,"duration":1},"status":"passed","steps":[],"attachments":[],"parameters":[],"shouldDisplayMessage":false,"stepsCount":0,"attachmentsCount":0,"hasContent":false,"attachmentStep":false}],"attachments":[],"parameters":[],"shouldDisplayMessage":false,"stepsCount":3,"attachmentsCount":0,"hasContent":true,"attachmentStep":false},{"name":"Then the response status code should be 200","time":{"start":1749392776245,"stop":1749392776346,"duration":101},"status":"passed","steps":[{"name":"accessBreedsEndpoint","time":{"start":1749392776246,"stop":1749392776295,"duration":49},"status":"passed","steps":[{"name":"request (\"{ method: 'GET', url: '/breeds' }\")","time":{"start":1749392776247,"stop":1749392776295,"duration":48},"status":"passed","steps":[],"attachments":[],"parameters":[],"shouldDisplayMessage":false,"stepsCount":0,"attachmentsCount":0,"hasContent":false,"attachmentStep":false}],"attachments":[],"parameters":[],"shouldDisplayMessage":false,"stepsCount":1,"attachmentsCount":0,"hasContent":true,"attachmentStep":false},{"name":"assert expected **200** to equal **200**","time":{"start":1749392776297,"stop":1749392776297,"duration":0},"status":"passed","steps":[],"attachments":[],"parameters":[{"name":"actual","value":"200"},{"name":"expected","value":"200"}],"shouldDisplayMessage":false,"stepsCount":0,"attachmentsCount":0,"hasContent":true,"attachmentStep":false}],"attachments":[],"parameters":[],"shouldDisplayMessage":false,"stepsCount":3,"attachmentsCount":0,"hasContent":true,"attachmentStep":false},{"name":"And the response body should contain a list of cat breeds","time":{"start":1749392776301,"stop":1749392776346,"duration":45},"status":"passed","steps":[{"name":"accessBreedsEndpoint","time":{"start":1749392776303,"stop":1749392776339,"duration":36},"status":"passed","steps":[{"name":"request (\"{ method: 'GET', url: '/breeds' }\")","time":{"start":1749392776303,"stop":1749392776339,"duration":36},"status":"passed","steps":[],"attachments":[],"parameters":[],"shouldDisplayMessage":false,"stepsCount":0,"attachmentsCount":0,"hasContent":false,"attachmentStep":false}],"attachments":[],"parameters":[],"shouldDisplayMessage":false,"stepsCount":1,"attachmentsCount":0,"hasContent":true,"attachmentStep":false},{"name":"assert expected **[ Array(25) ]** to be an array","time":{"start":1749392776344,"stop":1749392776344,"duration":0},"status":"passed","steps":[],"attachments":[],"parameters":[{"name":"actual","value":"[\n  {\n    \"breed\": \"Abyssinian\",\n    \"country\": \"Ethiopia\",\n    \"origin\": \"Natural/Standard\",\n    \"coat\": \"Short\",\n    \"pattern\": \"Ticked\"\n  },\n  {\n    \"breed\": \"Aegean\",\n    \"country\": \"Greece\",\n    \"origin\": \"Natural/Standard\",\n    \"coat\": \"Semi-long\",\n    \"pattern\": \"Bi- or tri-colored\"\n  },\n  {\n    \"breed\": \"American Curl\",\n    \"country\": \"United States\",\n    \"origin\": \"Mutation\",\n    \"coat\": \"Short/Long\",\n    \"pattern\": \"All\"\n  },\n  {\n    \"breed\": \"American Bobtail\",\n    \"country\": \"United States\",\n    \"origin\": \"Mutation\",\n    \"coat\": \"Short/Long\",\n    \"pattern\": \"All\"\n  },\n  {\n    \"breed\": \"American Shorthair\",\n    \"country\": \"United States\",\n    \"origin\": \"Natural\",\n    \"coat\": \"Short\",\n    \"pattern\": \"All but colorpoint\"\n  },\n  {\n    \"breed\": \"American Wirehair\",\n    \"country\": \"United States\",\n    \"origin\": \"Mutation\",\n    \"coat\": \"Rex\",\n    \"pattern\": \"All but colorpoint\"\n  },\n  {\n    \"breed\": \"Arabian Mau\",\n    \"country\": \"Arabian Peninsula\",\n    \"origin\": \"Natural\",\n    \"coat\": \"Short\",\n    \"pattern\": \"\"\n  },\n  {\n    \"breed\": \"Australian Mist\",\n    \"country\": \"Australia\",\n    \"origin\": \"Crossbreed\",\n    \"coat\": \"Short\",\n    \"pattern\": \"Spotted and Classic tabby\"\n  },\n  {\n    \"breed\": \"Asian\",\n    \"country\": \"developed in the United Kingdom (founding stock from Asia)\",\n    \"origin\": \"\",\n    \"coat\": \"Short\",\n    \"pattern\": \"Evenly solid\"\n  },\n  {\n    \"breed\": \"Asian Semi-longhair\",\n    \"country\": \"United Kingdom\",\n    \"origin\": \"Crossbreed\",\n    \"coat\": \"Semi-long\",\n    \"pattern\": \"Solid\"\n  },\n  {\n    \"breed\": \"Balinese\",\n    \"country\": \"developed in the United States (founding stock from Thailand)\",\n    \"origin\": \"Crossbreed\",\n    \"coat\": \"Long\",\n    \"pattern\": \"Colorpoint\"\n  },\n  {\n    \"breed\": \"Bambino\",\n    \"country\": \"United States\",\n    \"origin\": \"Crossbreed\",\n    \"coat\": \"Hairless/Furry down\",\n    \"pattern\": \"\"\n  },\n  {\n    \"breed\": \"Bengal\",\n    \"country\": \"developed in the United States (founding stock from Asia)\",\n    \"origin\": \"Hybrid\",\n    \"coat\": \"Short\",\n    \"pattern\": \"Spotted/Marbled\"\n  },\n  {\n    \"breed\": \"Birman\",\n    \"country\": \"developed in France (founding stock from Burma)\",\n    \"origin\": \"Natural\",\n    \"coat\": \"Semi Long\",\n    \"pattern\": \"Colorpoint\"\n  },\n  {\n    \"breed\": \"Bombay\",\n    \"country\": \"developed in the United States (founding stock from Asia)\",\n    \"origin\": \"Crossbred\",\n    \"coat\": \"Short\",\n    \"pattern\": \"Solid\"\n  },\n  {\n    \"breed\": \"Brazilian Shorthair\",\n    \"country\": \"Brazil\",\n    \"origin\": \"Natural\",\n    \"coat\": \"Short\",\n    \"pattern\": \"All\"\n  },\n  {\n    \"breed\": \"British Semi-longhair\",\n    \"country\": \"United Kingdom\",\n    \"origin\": \"\",\n    \"coat\": \"Medium\",\n    \"pattern\": \"All\"\n  },\n  {\n    \"breed\": \"British Shorthair\",\n    \"country\": \"United Kingdom\",\n    \"origin\": \"Natural\",\n    \"coat\": \"Short\",\n    \"pattern\": \"All\"\n  },\n  {\n    \"breed\": \"British Longhair\",\n    \"country\": \"United Kingdom\",\n    \"origin\": \"\",\n    \"coat\": \"Long\",\n    \"pattern\": \"\"\n  },\n  {\n    \"breed\": \"Burmese\",\n    \"country\": \"Burma and Thailand\",\n    \"origin\": \"Natural\",\n    \"coat\": \"Short\",\n    \"pattern\": \"Solid\"\n  },\n  {\n    \"breed\": \"Burmilla\",\n    \"country\": \"United Kingdom\",\n    \"origin\": \"Crossbreed\",\n    \"coat\": \"Short/Long\",\n    \"pattern\": \"\"\n  },\n  {\n    \"breed\": \"California Spangled\",\n    \"country\": \"United States\",\n    \"origin\": \"Crossbreed\",\n    \"coat\": \"Short\",\n    \"pattern\": \"Spotted\"\n  },\n  {\n    \"breed\": \"Chantilly-Tiffany\",\n    \"country\": \"United States\",\n    \"origin\": \"\",\n    \"coat\": \"\",\n    \"pattern\": \"\"\n  },\n  {\n    \"breed\": \"Chartreux\",\n    \"country\": \"France\",\n    \"origin\": \"Natural\",\n    \"coat\": \"Short\",\n    \"pattern\": \"Solid\"\n  },\n  {\n    \"breed\": \"Chausie\",\n    \"country\": \"France\",\n    \"origin\": \"Hybrid\",\n    \"coat\": \"Short\",\n    \"pattern\": \"Ticked\"\n  }\n]"}],"shouldDisplayMessage":false,"stepsCount":0,"attachmentsCount":0,"hasContent":true,"attachmentStep":false},{"name":"assert expected **[ Array(25) ]** not to be empty","time":{"start":1749392776344,"stop":1749392776344,"duration":0},"status":"passed","steps":[],"attachments":[],"parameters":[{"name":"actual","value":"[\n  {\n    \"breed\": \"Abyssinian\",\n    \"country\": \"Ethiopia\",\n    \"origin\": \"Natural/Standard\",\n    \"coat\": \"Short\",\n    \"pattern\": \"Ticked\"\n  },\n  {\n    \"breed\": \"Aegean\",\n    \"country\": \"Greece\",\n    \"origin\": \"Natural/Standard\",\n    \"coat\": \"Semi-long\",\n    \"pattern\": \"Bi- or tri-colored\"\n  },\n  {\n    \"breed\": \"American Curl\",\n    \"country\": \"United States\",\n    \"origin\": \"Mutation\",\n    \"coat\": \"Short/Long\",\n    \"pattern\": \"All\"\n  },\n  {\n    \"breed\": \"American Bobtail\",\n    \"country\": \"United States\",\n    \"origin\": \"Mutation\",\n    \"coat\": \"Short/Long\",\n    \"pattern\": \"All\"\n  },\n  {\n    \"breed\": \"American Shorthair\",\n    \"country\": \"United States\",\n    \"origin\": \"Natural\",\n    \"coat\": \"Short\",\n    \"pattern\": \"All but colorpoint\"\n  },\n  {\n    \"breed\": \"American Wirehair\",\n    \"country\": \"United States\",\n    \"origin\": \"Mutation\",\n    \"coat\": \"Rex\",\n    \"pattern\": \"All but colorpoint\"\n  },\n  {\n    \"breed\": \"Arabian Mau\",\n    \"country\": \"Arabian Peninsula\",\n    \"origin\": \"Natural\",\n    \"coat\": \"Short\",\n    \"pattern\": \"\"\n  },\n  {\n    \"breed\": \"Australian Mist\",\n    \"country\": \"Australia\",\n    \"origin\": \"Crossbreed\",\n    \"coat\": \"Short\",\n    \"pattern\": \"Spotted and Classic tabby\"\n  },\n  {\n    \"breed\": \"Asian\",\n    \"country\": \"developed in the United Kingdom (founding stock from Asia)\",\n    \"origin\": \"\",\n    \"coat\": \"Short\",\n    \"pattern\": \"Evenly solid\"\n  },\n  {\n    \"breed\": \"Asian Semi-longhair\",\n    \"country\": \"United Kingdom\",\n    \"origin\": \"Crossbreed\",\n    \"coat\": \"Semi-long\",\n    \"pattern\": \"Solid\"\n  },\n  {\n    \"breed\": \"Balinese\",\n    \"country\": \"developed in the United States (founding stock from Thailand)\",\n    \"origin\": \"Crossbreed\",\n    \"coat\": \"Long\",\n    \"pattern\": \"Colorpoint\"\n  },\n  {\n    \"breed\": \"Bambino\",\n    \"country\": \"United States\",\n    \"origin\": \"Crossbreed\",\n    \"coat\": \"Hairless/Furry down\",\n    \"pattern\": \"\"\n  },\n  {\n    \"breed\": \"Bengal\",\n    \"country\": \"developed in the United States (founding stock from Asia)\",\n    \"origin\": \"Hybrid\",\n    \"coat\": \"Short\",\n    \"pattern\": \"Spotted/Marbled\"\n  },\n  {\n    \"breed\": \"Birman\",\n    \"country\": \"developed in France (founding stock from Burma)\",\n    \"origin\": \"Natural\",\n    \"coat\": \"Semi Long\",\n    \"pattern\": \"Colorpoint\"\n  },\n  {\n    \"breed\": \"Bombay\",\n    \"country\": \"developed in the United States (founding stock from Asia)\",\n    \"origin\": \"Crossbred\",\n    \"coat\": \"Short\",\n    \"pattern\": \"Solid\"\n  },\n  {\n    \"breed\": \"Brazilian Shorthair\",\n    \"country\": \"Brazil\",\n    \"origin\": \"Natural\",\n    \"coat\": \"Short\",\n    \"pattern\": \"All\"\n  },\n  {\n    \"breed\": \"British Semi-longhair\",\n    \"country\": \"United Kingdom\",\n    \"origin\": \"\",\n    \"coat\": \"Medium\",\n    \"pattern\": \"All\"\n  },\n  {\n    \"breed\": \"British Shorthair\",\n    \"country\": \"United Kingdom\",\n    \"origin\": \"Natural\",\n    \"coat\": \"Short\",\n    \"pattern\": \"All\"\n  },\n  {\n    \"breed\": \"British Longhair\",\n    \"country\": \"United Kingdom\",\n    \"origin\": \"\",\n    \"coat\": \"Long\",\n    \"pattern\": \"\"\n  },\n  {\n    \"breed\": \"Burmese\",\n    \"country\": \"Burma and Thailand\",\n    \"origin\": \"Natural\",\n    \"coat\": \"Short\",\n    \"pattern\": \"Solid\"\n  },\n  {\n    \"breed\": \"Burmilla\",\n    \"country\": \"United Kingdom\",\n    \"origin\": \"Crossbreed\",\n    \"coat\": \"Short/Long\",\n    \"pattern\": \"\"\n  },\n  {\n    \"breed\": \"California Spangled\",\n    \"country\": \"United States\",\n    \"origin\": \"Crossbreed\",\n    \"coat\": \"Short\",\n    \"pattern\": \"Spotted\"\n  },\n  {\n    \"breed\": \"Chantilly-Tiffany\",\n    \"country\": \"United States\",\n    \"origin\": \"\",\n    \"coat\": \"\",\n    \"pattern\": \"\"\n  },\n  {\n    \"breed\": \"Chartreux\",\n    \"country\": \"France\",\n    \"origin\": \"Natural\",\n    \"coat\": \"Short\",\n    \"pattern\": \"Solid\"\n  },\n  {\n    \"breed\": \"Chausie\",\n    \"country\": \"France\",\n    \"origin\": \"Hybrid\",\n    \"coat\": \"Short\",\n    \"pattern\": \"Ticked\"\n  }\n]"}],"shouldDisplayMessage":false,"stepsCount":0,"attachmentsCount":0,"hasContent":true,"attachmentStep":false},{"name":"assert expected **{ Object (current_page, data, ...) }** to have property **data**","time":{"start":1749392776344,"stop":1749392776344,"duration":0},"status":"passed","steps":[],"attachments":[],"parameters":[{"name":"actual","value":"{\n  \"current_page\": 1,\n  \"data\": [\n    {\n      \"breed\": \"Abyssinian\",\n      \"country\": \"Ethiopia\",\n      \"origin\": \"Natural/Standard\",\n      \"coat\": \"Short\",\n      \"pattern\": \"Ticked\"\n    },\n    {\n      \"breed\": \"Aegean\",\n      \"country\": \"Greece\",\n      \"origin\": \"Natural/Standard\",\n      \"coat\": \"Semi-long\",\n      \"pattern\": \"Bi- or tri-colored\"\n    },\n    {\n      \"breed\": \"American Curl\",\n      \"country\": \"United States\",\n      \"origin\": \"Mutation\",\n      \"coat\": \"Short/Long\",\n      \"pattern\": \"All\"\n    },\n    {\n      \"breed\": \"American Bobtail\",\n      \"country\": \"United States\",\n      \"origin\": \"Mutation\",\n      \"coat\": \"Short/Long\",\n      \"pattern\": \"All\"\n    },\n    {\n      \"breed\": \"American Shorthair\",\n      \"country\": \"United States\",\n      \"origin\": \"Natural\",\n      \"coat\": \"Short\",\n      \"pattern\": \"All but colorpoint\"\n    },\n    {\n      \"breed\": \"American Wirehair\",\n      \"country\": \"United States\",\n      \"origin\": \"Mutation\",\n      \"coat\": \"Rex\",\n      \"pattern\": \"All but colorpoint\"\n    },\n    {\n      \"breed\": \"Arabian Mau\",\n      \"country\": \"Arabian Peninsula\",\n      \"origin\": \"Natural\",\n      \"coat\": \"Short\",\n      \"pattern\": \"\"\n    },\n    {\n      \"breed\": \"Australian Mist\",\n      \"country\": \"Australia\",\n      \"origin\": \"Crossbreed\",\n      \"coat\": \"Short\",\n      \"pattern\": \"Spotted and Classic tabby\"\n    },\n    {\n      \"breed\": \"Asian\",\n      \"country\": \"developed in the United Kingdom (founding stock from Asia)\",\n      \"origin\": \"\",\n      \"coat\": \"Short\",\n      \"pattern\": \"Evenly solid\"\n    },\n    {\n      \"breed\": \"Asian Semi-longhair\",\n      \"country\": \"United Kingdom\",\n      \"origin\": \"Crossbreed\",\n      \"coat\": \"Semi-long\",\n      \"pattern\": \"Solid\"\n    },\n    {\n      \"breed\": \"Balinese\",\n      \"country\": \"developed in the United States (founding stock from Thailand)\",\n      \"origin\": \"Crossbreed\",\n      \"coat\": \"Long\",\n      \"pattern\": \"Colorpoint\"\n    },\n    {\n      \"breed\": \"Bambino\",\n      \"country\": \"United States\",\n      \"origin\": \"Crossbreed\",\n      \"coat\": \"Hairless/Furry down\",\n      \"pattern\": \"\"\n    },\n    {\n      \"breed\": \"Bengal\",\n      \"country\": \"developed in the United States (founding stock from Asia)\",\n      \"origin\": \"Hybrid\",\n      \"coat\": \"Short\",\n      \"pattern\": \"Spotted/Marbled\"\n    },\n    {\n      \"breed\": \"Birman\",\n      \"country\": \"developed in France (founding stock from Burma)\",\n      \"origin\": \"Natural\",\n      \"coat\": \"Semi Long\",\n      \"pattern\": \"Colorpoint\"\n    },\n    {\n      \"breed\": \"Bombay\",\n      \"country\": \"developed in the United States (founding stock from Asia)\",\n      \"origin\": \"Crossbred\",\n      \"coat\": \"Short\",\n      \"pattern\": \"Solid\"\n    },\n    {\n      \"breed\": \"Brazilian Shorthair\",\n      \"country\": \"Brazil\",\n      \"origin\": \"Natural\",\n      \"coat\": \"Short\",\n      \"pattern\": \"All\"\n    },\n    {\n      \"breed\": \"British Semi-longhair\",\n      \"country\": \"United Kingdom\",\n      \"origin\": \"\",\n      \"coat\": \"Medium\",\n      \"pattern\": \"All\"\n    },\n    {\n      \"breed\": \"British Shorthair\",\n      \"country\": \"United Kingdom\",\n      \"origin\": \"Natural\",\n      \"coat\": \"Short\",\n      \"pattern\": \"All\"\n    },\n    {\n      \"breed\": \"British Longhair\",\n      \"country\": \"United Kingdom\",\n      \"origin\": \"\",\n      \"coat\": \"Long\",\n      \"pattern\": \"\"\n    },\n    {\n      \"breed\": \"Burmese\",\n      \"country\": \"Burma and Thailand\",\n      \"origin\": \"Natural\",\n      \"coat\": \"Short\",\n      \"pattern\": \"Solid\"\n    },\n    {\n      \"breed\": \"Burmilla\",\n      \"country\": \"United Kingdom\",\n      \"origin\": \"Crossbreed\",\n      \"coat\": \"Short/Long\",\n      \"pattern\": \"\"\n    },\n    {\n      \"breed\": \"California Spangled\",\n      \"country\": \"United States\",\n      \"origin\": \"Crossbreed\",\n      \"coat\": \"Short\",\n      \"pattern\": \"Spotted\"\n    },\n    {\n      \"breed\": \"Chantilly-Tiffany\",\n      \"country\": \"United States\",\n      \"origin\": \"\",\n      \"coat\": \"\",\n      \"pattern\": \"\"\n    },\n    {\n      \"breed\": \"Chartreux\",\n      \"country\": \"France\",\n      \"origin\": \"Natural\",\n      \"coat\": \"Short\",\n      \"pattern\": \"Solid\"\n    },\n    {\n      \"breed\": \"Chausie\",\n      \"country\": \"France\",\n      \"origin\": \"Hybrid\",\n      \"coat\": \"Short\",\n      \"pattern\": \"Ticked\"\n    }\n  ],\n  \"first_page_url\": \"https://catfact.ninja/breeds?page=1\",\n  \"from\": 1,\n  \"last_page\": 4,\n  \"last_page_url\": \"https://catfact.ninja/breeds?page=4\",\n  \"links\": [\n    {\n      \"url\": null,\n      \"label\": \"Previous\",\n      \"active\": false\n    },\n    {\n      \"url\": \"https://catfact.ninja/breeds?page=1\",\n      \"label\": \"1\",\n      \"active\": true\n    },\n    {\n      \"url\": \"https://catfact.ninja/breeds?page=2\",\n      \"label\": \"2\",\n      \"active\": false\n    },\n    {\n      \"url\": \"https://catfact.ninja/breeds?page=3\",\n      \"label\": \"3\",\n      \"active\": false\n    },\n    {\n      \"url\": \"https://catfact.ninja/breeds?page=4\",\n      \"label\": \"4\",\n      \"active\": false\n    },\n    {\n      \"url\": \"https://catfact.ninja/breeds?page=2\",\n      \"label\": \"Next\",\n      \"active\": false\n    }\n  ],\n  \"next_page_url\": \"https://catfact.ninja/breeds?page=2\",\n  \"path\": \"https://catfact.ninja/breeds\",\n  \"per_page\": 25,\n  \"prev_page_url\": null,\n  \"to\": 25,\n  \"total\": 98\n}"}],"shouldDisplayMessage":false,"stepsCount":0,"attachmentsCount":0,"hasContent":true,"attachmentStep":false}],"attachments":[],"parameters":[],"shouldDisplayMessage":false,"stepsCount":5,"attachmentsCount":0,"hasContent":true,"attachmentStep":false}],"attachments":[],"parameters":[],"shouldDisplayMessage":false,"stepsCount":18,"attachmentsCount":0,"hasContent":true,"attachmentStep":false},"afterStages":[],"labels":[{"name":"package","value":"cypress.e2e.features.breeds_happy.feature"},{"name":"suite","value":"Get Cat Breeds from Cat Facts API"},{"name":"feature","value":"Get Cat Breeds from Cat Facts API"},{"name":"resultFormat","value":"allure2"}],"parameters":[],"links":[],"hidden":false,"retry":false,"extra":{"severity":"normal","retries":[],"categories":[],"tags":[]},"source":"275193f53b223d9b.json","parameterValues":[]}