{"uid":"c74d0a7f759efb99","name":"Validate pagination in request","fullName":"Validate pagination in request","historyId":"f4efef6fd05a6b2c9b10cc5f6a4416fc","time":{"start":1749392776635,"stop":1749392776877,"duration":242},"status":"passed","flaky":false,"newFailed":false,"newBroken":false,"newPassed":false,"retriesCount":0,"retriesStatusChange":false,"beforeStages":[],"testStage":{"status":"passed","steps":[{"name":"Given the API is available","time":{"start":1749392776662,"stop":1749392776877,"duration":215},"status":"passed","steps":[{"name":"accessAPI","time":{"start":1749392776663,"stop":1749392776694,"duration":31},"status":"passed","steps":[{"name":"request (\"{ method: 'GET', url: '/' }\")","time":{"start":1749392776664,"stop":1749392776694,"duration":30},"status":"passed","steps":[],"attachments":[],"parameters":[],"shouldDisplayMessage":false,"stepsCount":0,"attachmentsCount":0,"hasContent":false,"attachmentStep":false}],"attachments":[],"parameters":[],"shouldDisplayMessage":false,"stepsCount":1,"attachmentsCount":0,"hasContent":true,"attachmentStep":false},{"name":"assert expected **200** to equal **200**","time":{"start":1749392776695,"stop":1749392776695,"duration":0},"status":"passed","steps":[],"attachments":[],"parameters":[{"name":"actual","value":"200"},{"name":"expected","value":"200"}],"shouldDisplayMessage":false,"stepsCount":0,"attachmentsCount":0,"hasContent":true,"attachmentStep":false}],"attachments":[],"parameters":[],"shouldDisplayMessage":false,"stepsCount":3,"attachmentsCount":0,"hasContent":true,"attachmentStep":false},{"name":"When I send a GET request to endpoint breeds","time":{"start":1749392776698,"stop":1749392776877,"duration":179},"status":"passed","steps":[{"name":"accessBreedsEndpoint","time":{"start":1749392776699,"stop":1749392776745,"duration":46},"status":"passed","steps":[{"name":"request (\"{ method: 'GET', url: '/breeds' }\")","time":{"start":1749392776700,"stop":1749392776745,"duration":45},"status":"passed","steps":[],"attachments":[],"parameters":[],"shouldDisplayMessage":false,"stepsCount":0,"attachmentsCount":0,"hasContent":false,"attachmentStep":false}],"attachments":[],"parameters":[],"shouldDisplayMessage":false,"stepsCount":1,"attachmentsCount":0,"hasContent":true,"attachmentStep":false},{"name":"as (\"breedsResponse\")","time":{"start":1749392776745,"stop":1749392776745,"duration":0},"status":"passed","steps":[],"attachments":[],"parameters":[],"shouldDisplayMessage":false,"stepsCount":0,"attachmentsCount":0,"hasContent":false,"attachmentStep":false}],"attachments":[],"parameters":[],"shouldDisplayMessage":false,"stepsCount":3,"attachmentsCount":0,"hasContent":true,"attachmentStep":false},{"name":"Then the response status code should be 200","time":{"start":1749392776749,"stop":1749392776877,"duration":128},"status":"passed","steps":[{"name":"accessBreedsEndpoint","time":{"start":1749392776750,"stop":1749392776793,"duration":43},"status":"passed","steps":[{"name":"request (\"{ method: 'GET', url: '/breeds' }\")","time":{"start":1749392776751,"stop":1749392776793,"duration":42},"status":"passed","steps":[],"attachments":[],"parameters":[],"shouldDisplayMessage":false,"stepsCount":0,"attachmentsCount":0,"hasContent":false,"attachmentStep":false}],"attachments":[],"parameters":[],"shouldDisplayMessage":false,"stepsCount":1,"attachmentsCount":0,"hasContent":true,"attachmentStep":false},{"name":"assert expected **200** to equal **200**","time":{"start":1749392776795,"stop":1749392776795,"duration":0},"status":"passed","steps":[],"attachments":[],"parameters":[{"name":"actual","value":"200"},{"name":"expected","value":"200"}],"shouldDisplayMessage":false,"stepsCount":0,"attachmentsCount":0,"hasContent":true,"attachmentStep":false}],"attachments":[],"parameters":[],"shouldDisplayMessage":false,"stepsCount":3,"attachmentsCount":0,"hasContent":true,"attachmentStep":false},{"name":"And the response body should include pagination fields: per_page and total","time":{"start":1749392776798,"stop":1749392776877,"duration":79},"status":"passed","steps":[{"name":"accessBreedsEndpoint","time":{"start":1749392776799,"stop":1749392776870,"duration":71},"status":"passed","steps":[{"name":"request (\"{ method: 'GET', url: '/breeds' }\")","time":{"start":1749392776799,"stop":1749392776870,"duration":71},"status":"passed","steps":[],"attachments":[],"parameters":[],"shouldDisplayMessage":false,"stepsCount":0,"attachmentsCount":0,"hasContent":false,"attachmentStep":false}],"attachments":[],"parameters":[],"shouldDisplayMessage":false,"stepsCount":1,"attachmentsCount":0,"hasContent":true,"attachmentStep":false},{"name":"assert expected **25** to be a number","time":{"start":1749392776875,"stop":1749392776875,"duration":0},"status":"passed","steps":[],"attachments":[],"parameters":[{"name":"actual","value":"25"}],"shouldDisplayMessage":false,"stepsCount":0,"attachmentsCount":0,"hasContent":true,"attachmentStep":false},{"name":"assert expected **{ Object (current_page, data, ...) }** to have property **total**","time":{"start":1749392776875,"stop":1749392776875,"duration":0},"status":"passed","steps":[],"attachments":[],"parameters":[{"name":"actual","value":"{\n  \"current_page\": 1,\n  \"data\": [\n    {\n      \"breed\": \"Abyssinian\",\n      \"country\": \"Ethiopia\",\n      \"origin\": \"Natural/Standard\",\n      \"coat\": \"Short\",\n      \"pattern\": \"Ticked\"\n    },\n    {\n      \"breed\": \"Aegean\",\n      \"country\": \"Greece\",\n      \"origin\": \"Natural/Standard\",\n      \"coat\": \"Semi-long\",\n      \"pattern\": \"Bi- or tri-colored\"\n    },\n    {\n      \"breed\": \"American Curl\",\n      \"country\": \"United States\",\n      \"origin\": \"Mutation\",\n      \"coat\": \"Short/Long\",\n      \"pattern\": \"All\"\n    },\n    {\n      \"breed\": \"American Bobtail\",\n      \"country\": \"United States\",\n      \"origin\": \"Mutation\",\n      \"coat\": \"Short/Long\",\n      \"pattern\": \"All\"\n    },\n    {\n      \"breed\": \"American Shorthair\",\n      \"country\": \"United States\",\n      \"origin\": \"Natural\",\n      \"coat\": \"Short\",\n      \"pattern\": \"All but colorpoint\"\n    },\n    {\n      \"breed\": \"American Wirehair\",\n      \"country\": \"United States\",\n      \"origin\": \"Mutation\",\n      \"coat\": \"Rex\",\n      \"pattern\": \"All but colorpoint\"\n    },\n    {\n      \"breed\": \"Arabian Mau\",\n      \"country\": \"Arabian Peninsula\",\n      \"origin\": \"Natural\",\n      \"coat\": \"Short\",\n      \"pattern\": \"\"\n    },\n    {\n      \"breed\": \"Australian Mist\",\n      \"country\": \"Australia\",\n      \"origin\": \"Crossbreed\",\n      \"coat\": \"Short\",\n      \"pattern\": \"Spotted and Classic tabby\"\n    },\n    {\n      \"breed\": \"Asian\",\n      \"country\": \"developed in the United Kingdom (founding stock from Asia)\",\n      \"origin\": \"\",\n      \"coat\": \"Short\",\n      \"pattern\": \"Evenly solid\"\n    },\n    {\n      \"breed\": \"Asian Semi-longhair\",\n      \"country\": \"United Kingdom\",\n      \"origin\": \"Crossbreed\",\n      \"coat\": \"Semi-long\",\n      \"pattern\": \"Solid\"\n    },\n    {\n      \"breed\": \"Balinese\",\n      \"country\": \"developed in the United States (founding stock from Thailand)\",\n      \"origin\": \"Crossbreed\",\n      \"coat\": \"Long\",\n      \"pattern\": \"Colorpoint\"\n    },\n    {\n      \"breed\": \"Bambino\",\n      \"country\": \"United States\",\n      \"origin\": \"Crossbreed\",\n      \"coat\": \"Hairless/Furry down\",\n      \"pattern\": \"\"\n    },\n    {\n      \"breed\": \"Bengal\",\n      \"country\": \"developed in the United States (founding stock from Asia)\",\n      \"origin\": \"Hybrid\",\n      \"coat\": \"Short\",\n      \"pattern\": \"Spotted/Marbled\"\n    },\n    {\n      \"breed\": \"Birman\",\n      \"country\": \"developed in France (founding stock from Burma)\",\n      \"origin\": \"Natural\",\n      \"coat\": \"Semi Long\",\n      \"pattern\": \"Colorpoint\"\n    },\n    {\n      \"breed\": \"Bombay\",\n      \"country\": \"developed in the United States (founding stock from Asia)\",\n      \"origin\": \"Crossbred\",\n      \"coat\": \"Short\",\n      \"pattern\": \"Solid\"\n    },\n    {\n      \"breed\": \"Brazilian Shorthair\",\n      \"country\": \"Brazil\",\n      \"origin\": \"Natural\",\n      \"coat\": \"Short\",\n      \"pattern\": \"All\"\n    },\n    {\n      \"breed\": \"British Semi-longhair\",\n      \"country\": \"United Kingdom\",\n      \"origin\": \"\",\n      \"coat\": \"Medium\",\n      \"pattern\": \"All\"\n    },\n    {\n      \"breed\": \"British Shorthair\",\n      \"country\": \"United Kingdom\",\n      \"origin\": \"Natural\",\n      \"coat\": \"Short\",\n      \"pattern\": \"All\"\n    },\n    {\n      \"breed\": \"British Longhair\",\n      \"country\": \"United Kingdom\",\n      \"origin\": \"\",\n      \"coat\": \"Long\",\n      \"pattern\": \"\"\n    },\n    {\n      \"breed\": \"Burmese\",\n      \"country\": \"Burma and Thailand\",\n      \"origin\": \"Natural\",\n      \"coat\": \"Short\",\n      \"pattern\": \"Solid\"\n    },\n    {\n      \"breed\": \"Burmilla\",\n      \"country\": \"United Kingdom\",\n      \"origin\": \"Crossbreed\",\n      \"coat\": \"Short/Long\",\n      \"pattern\": \"\"\n    },\n    {\n      \"breed\": \"California Spangled\",\n      \"country\": \"United States\",\n      \"origin\": \"Crossbreed\",\n      \"coat\": \"Short\",\n      \"pattern\": \"Spotted\"\n    },\n    {\n      \"breed\": \"Chantilly-Tiffany\",\n      \"country\": \"United States\",\n      \"origin\": \"\",\n      \"coat\": \"\",\n      \"pattern\": \"\"\n    },\n    {\n      \"breed\": \"Chartreux\",\n      \"country\": \"France\",\n      \"origin\": \"Natural\",\n      \"coat\": \"Short\",\n      \"pattern\": \"Solid\"\n    },\n    {\n      \"breed\": \"Chausie\",\n      \"country\": \"France\",\n      \"origin\": \"Hybrid\",\n      \"coat\": \"Short\",\n      \"pattern\": \"Ticked\"\n    }\n  ],\n  \"first_page_url\": \"https://catfact.ninja/breeds?page=1\",\n  \"from\": 1,\n  \"last_page\": 4,\n  \"last_page_url\": \"https://catfact.ninja/breeds?page=4\",\n  \"links\": [\n    {\n      \"url\": null,\n      \"label\": \"Previous\",\n      \"active\": false\n    },\n    {\n      \"url\": \"https://catfact.ninja/breeds?page=1\",\n      \"label\": \"1\",\n      \"active\": true\n    },\n    {\n      \"url\": \"https://catfact.ninja/breeds?page=2\",\n      \"label\": \"2\",\n      \"active\": false\n    },\n    {\n      \"url\": \"https://catfact.ninja/breeds?page=3\",\n      \"label\": \"3\",\n      \"active\": false\n    },\n    {\n      \"url\": \"https://catfact.ninja/breeds?page=4\",\n      \"label\": \"4\",\n      \"active\": false\n    },\n    {\n      \"url\": \"https://catfact.ninja/breeds?page=2\",\n      \"label\": \"Next\",\n      \"active\": false\n    }\n  ],\n  \"next_page_url\": \"https://catfact.ninja/breeds?page=2\",\n  \"path\": \"https://catfact.ninja/breeds\",\n  \"per_page\": 25,\n  \"prev_page_url\": null,\n  \"to\": 25,\n  \"total\": 98\n}"}],"shouldDisplayMessage":false,"stepsCount":0,"attachmentsCount":0,"hasContent":true,"attachmentStep":false},{"name":"assert expected **98** to be a number","time":{"start":1749392776875,"stop":1749392776875,"duration":0},"status":"passed","steps":[],"attachments":[],"parameters":[{"name":"actual","value":"98"}],"shouldDisplayMessage":false,"stepsCount":0,"attachmentsCount":0,"hasContent":true,"attachmentStep":false},{"name":"assert expected **{ Object (current_page, data, ...) }** to have property **per_page**","time":{"start":1749392776875,"stop":1749392776875,"duration":0},"status":"passed","steps":[],"attachments":[],"parameters":[{"name":"actual","value":"{\n  \"current_page\": 1,\n  \"data\": [\n    {\n      \"breed\": \"Abyssinian\",\n      \"country\": \"Ethiopia\",\n      \"origin\": \"Natural/Standard\",\n      \"coat\": \"Short\",\n      \"pattern\": \"Ticked\"\n    },\n    {\n      \"breed\": \"Aegean\",\n      \"country\": \"Greece\",\n      \"origin\": \"Natural/Standard\",\n      \"coat\": \"Semi-long\",\n      \"pattern\": \"Bi- or tri-colored\"\n    },\n    {\n      \"breed\": \"American Curl\",\n      \"country\": \"United States\",\n      \"origin\": \"Mutation\",\n      \"coat\": \"Short/Long\",\n      \"pattern\": \"All\"\n    },\n    {\n      \"breed\": \"American Bobtail\",\n      \"country\": \"United States\",\n      \"origin\": \"Mutation\",\n      \"coat\": \"Short/Long\",\n      \"pattern\": \"All\"\n    },\n    {\n      \"breed\": \"American Shorthair\",\n      \"country\": \"United States\",\n      \"origin\": \"Natural\",\n      \"coat\": \"Short\",\n      \"pattern\": \"All but colorpoint\"\n    },\n    {\n      \"breed\": \"American Wirehair\",\n      \"country\": \"United States\",\n      \"origin\": \"Mutation\",\n      \"coat\": \"Rex\",\n      \"pattern\": \"All but colorpoint\"\n    },\n    {\n      \"breed\": \"Arabian Mau\",\n      \"country\": \"Arabian Peninsula\",\n      \"origin\": \"Natural\",\n      \"coat\": \"Short\",\n      \"pattern\": \"\"\n    },\n    {\n      \"breed\": \"Australian Mist\",\n      \"country\": \"Australia\",\n      \"origin\": \"Crossbreed\",\n      \"coat\": \"Short\",\n      \"pattern\": \"Spotted and Classic tabby\"\n    },\n    {\n      \"breed\": \"Asian\",\n      \"country\": \"developed in the United Kingdom (founding stock from Asia)\",\n      \"origin\": \"\",\n      \"coat\": \"Short\",\n      \"pattern\": \"Evenly solid\"\n    },\n    {\n      \"breed\": \"Asian Semi-longhair\",\n      \"country\": \"United Kingdom\",\n      \"origin\": \"Crossbreed\",\n      \"coat\": \"Semi-long\",\n      \"pattern\": \"Solid\"\n    },\n    {\n      \"breed\": \"Balinese\",\n      \"country\": \"developed in the United States (founding stock from Thailand)\",\n      \"origin\": \"Crossbreed\",\n      \"coat\": \"Long\",\n      \"pattern\": \"Colorpoint\"\n    },\n    {\n      \"breed\": \"Bambino\",\n      \"country\": \"United States\",\n      \"origin\": \"Crossbreed\",\n      \"coat\": \"Hairless/Furry down\",\n      \"pattern\": \"\"\n    },\n    {\n      \"breed\": \"Bengal\",\n      \"country\": \"developed in the United States (founding stock from Asia)\",\n      \"origin\": \"Hybrid\",\n      \"coat\": \"Short\",\n      \"pattern\": \"Spotted/Marbled\"\n    },\n    {\n      \"breed\": \"Birman\",\n      \"country\": \"developed in France (founding stock from Burma)\",\n      \"origin\": \"Natural\",\n      \"coat\": \"Semi Long\",\n      \"pattern\": \"Colorpoint\"\n    },\n    {\n      \"breed\": \"Bombay\",\n      \"country\": \"developed in the United States (founding stock from Asia)\",\n      \"origin\": \"Crossbred\",\n      \"coat\": \"Short\",\n      \"pattern\": \"Solid\"\n    },\n    {\n      \"breed\": \"Brazilian Shorthair\",\n      \"country\": \"Brazil\",\n      \"origin\": \"Natural\",\n      \"coat\": \"Short\",\n      \"pattern\": \"All\"\n    },\n    {\n      \"breed\": \"British Semi-longhair\",\n      \"country\": \"United Kingdom\",\n      \"origin\": \"\",\n      \"coat\": \"Medium\",\n      \"pattern\": \"All\"\n    },\n    {\n      \"breed\": \"British Shorthair\",\n      \"country\": \"United Kingdom\",\n      \"origin\": \"Natural\",\n      \"coat\": \"Short\",\n      \"pattern\": \"All\"\n    },\n    {\n      \"breed\": \"British Longhair\",\n      \"country\": \"United Kingdom\",\n      \"origin\": \"\",\n      \"coat\": \"Long\",\n      \"pattern\": \"\"\n    },\n    {\n      \"breed\": \"Burmese\",\n      \"country\": \"Burma and Thailand\",\n      \"origin\": \"Natural\",\n      \"coat\": \"Short\",\n      \"pattern\": \"Solid\"\n    },\n    {\n      \"breed\": \"Burmilla\",\n      \"country\": \"United Kingdom\",\n      \"origin\": \"Crossbreed\",\n      \"coat\": \"Short/Long\",\n      \"pattern\": \"\"\n    },\n    {\n      \"breed\": \"California Spangled\",\n      \"country\": \"United States\",\n      \"origin\": \"Crossbreed\",\n      \"coat\": \"Short\",\n      \"pattern\": \"Spotted\"\n    },\n    {\n      \"breed\": \"Chantilly-Tiffany\",\n      \"country\": \"United States\",\n      \"origin\": \"\",\n      \"coat\": \"\",\n      \"pattern\": \"\"\n    },\n    {\n      \"breed\": \"Chartreux\",\n      \"country\": \"France\",\n      \"origin\": \"Natural\",\n      \"coat\": \"Short\",\n      \"pattern\": \"Solid\"\n    },\n    {\n      \"breed\": \"Chausie\",\n      \"country\": \"France\",\n      \"origin\": \"Hybrid\",\n      \"coat\": \"Short\",\n      \"pattern\": \"Ticked\"\n    }\n  ],\n  \"first_page_url\": \"https://catfact.ninja/breeds?page=1\",\n  \"from\": 1,\n  \"last_page\": 4,\n  \"last_page_url\": \"https://catfact.ninja/breeds?page=4\",\n  \"links\": [\n    {\n      \"url\": null,\n      \"label\": \"Previous\",\n      \"active\": false\n    },\n    {\n      \"url\": \"https://catfact.ninja/breeds?page=1\",\n      \"label\": \"1\",\n      \"active\": true\n    },\n    {\n      \"url\": \"https://catfact.ninja/breeds?page=2\",\n      \"label\": \"2\",\n      \"active\": false\n    },\n    {\n      \"url\": \"https://catfact.ninja/breeds?page=3\",\n      \"label\": \"3\",\n      \"active\": false\n    },\n    {\n      \"url\": \"https://catfact.ninja/breeds?page=4\",\n      \"label\": \"4\",\n      \"active\": false\n    },\n    {\n      \"url\": \"https://catfact.ninja/breeds?page=2\",\n      \"label\": \"Next\",\n      \"active\": false\n    }\n  ],\n  \"next_page_url\": \"https://catfact.ninja/breeds?page=2\",\n  \"path\": \"https://catfact.ninja/breeds\",\n  \"per_page\": 25,\n  \"prev_page_url\": null,\n  \"to\": 25,\n  \"total\": 98\n}"}],"shouldDisplayMessage":false,"stepsCount":0,"attachmentsCount":0,"hasContent":true,"attachmentStep":false}],"attachments":[],"parameters":[],"shouldDisplayMessage":false,"stepsCount":6,"attachmentsCount":0,"hasContent":true,"attachmentStep":false}],"attachments":[],"parameters":[],"shouldDisplayMessage":false,"stepsCount":19,"attachmentsCount":0,"hasContent":true,"attachmentStep":false},"afterStages":[],"labels":[{"name":"package","value":"cypress.e2e.features.breeds_happy.feature"},{"name":"suite","value":"Get Cat Breeds from Cat Facts API"},{"name":"feature","value":"Get Cat Breeds from Cat Facts API"},{"name":"resultFormat","value":"allure2"}],"parameters":[],"links":[],"hidden":false,"retry":false,"extra":{"severity":"normal","retries":[],"categories":[],"tags":[]},"source":"c74d0a7f759efb99.json","parameterValues":[]}