{"uid":"e4b3defb00f8f673","name":"Send GET request to /breeds with a valid limit parameter","fullName":"Send GET request to /breeds with a valid limit parameter","historyId":"12ff21c90065fffdc91f4e61cd6e893f","time":{"start":1749392776377,"stop":1749392776613,"duration":236},"status":"passed","flaky":false,"newFailed":false,"newBroken":false,"newPassed":false,"retriesCount":0,"retriesStatusChange":false,"beforeStages":[],"testStage":{"status":"passed","steps":[{"name":"Given the API is available","time":{"start":1749392776410,"stop":1749392776613,"duration":203},"status":"passed","steps":[{"name":"accessAPI","time":{"start":1749392776411,"stop":1749392776440,"duration":29},"status":"passed","steps":[{"name":"request (\"{ method: 'GET', url: '/' }\")","time":{"start":1749392776411,"stop":1749392776440,"duration":29},"status":"passed","steps":[],"attachments":[],"parameters":[],"shouldDisplayMessage":false,"stepsCount":0,"attachmentsCount":0,"hasContent":false,"attachmentStep":false}],"attachments":[],"parameters":[],"shouldDisplayMessage":false,"stepsCount":1,"attachmentsCount":0,"hasContent":true,"attachmentStep":false},{"name":"assert expected **200** to equal **200**","time":{"start":1749392776441,"stop":1749392776441,"duration":0},"status":"passed","steps":[],"attachments":[],"parameters":[{"name":"actual","value":"200"},{"name":"expected","value":"200"}],"shouldDisplayMessage":false,"stepsCount":0,"attachmentsCount":0,"hasContent":true,"attachmentStep":false}],"attachments":[],"parameters":[],"shouldDisplayMessage":false,"stepsCount":3,"attachmentsCount":0,"hasContent":true,"attachmentStep":false},{"name":"When I send a GET request to breeds?limit=5","time":{"start":1749392776444,"stop":1749392776613,"duration":169},"status":"passed","steps":[{"name":"accessBreedsEndpointWithParameters (\"5\")","time":{"start":1749392776445,"stop":1749392776483,"duration":38},"status":"passed","steps":[{"name":"request (\"{ method: 'GET', url: '/breeds?limit=5', failOnStatusCode: false }\")","time":{"start":1749392776446,"stop":1749392776483,"duration":37},"status":"passed","steps":[],"attachments":[],"parameters":[],"shouldDisplayMessage":false,"stepsCount":0,"attachmentsCount":0,"hasContent":false,"attachmentStep":false}],"attachments":[],"parameters":[],"shouldDisplayMessage":false,"stepsCount":1,"attachmentsCount":0,"hasContent":true,"attachmentStep":false},{"name":"as (\"breedsResponse\")","time":{"start":1749392776483,"stop":1749392776484,"duration":1},"status":"passed","steps":[],"attachments":[],"parameters":[],"shouldDisplayMessage":false,"stepsCount":0,"attachmentsCount":0,"hasContent":false,"attachmentStep":false}],"attachments":[],"parameters":[],"shouldDisplayMessage":false,"stepsCount":3,"attachmentsCount":0,"hasContent":true,"attachmentStep":false},{"name":"Then the response status code should be 200","time":{"start":1749392776489,"stop":1749392776613,"duration":124},"status":"passed","steps":[{"name":"accessBreedsEndpoint","time":{"start":1749392776490,"stop":1749392776540,"duration":50},"status":"passed","steps":[{"name":"request (\"{ method: 'GET', url: '/breeds' }\")","time":{"start":1749392776490,"stop":1749392776540,"duration":50},"status":"passed","steps":[],"attachments":[],"parameters":[],"shouldDisplayMessage":false,"stepsCount":0,"attachmentsCount":0,"hasContent":false,"attachmentStep":false}],"attachments":[],"parameters":[],"shouldDisplayMessage":false,"stepsCount":1,"attachmentsCount":0,"hasContent":true,"attachmentStep":false},{"name":"assert expected **200** to equal **200**","time":{"start":1749392776542,"stop":1749392776542,"duration":0},"status":"passed","steps":[],"attachments":[],"parameters":[{"name":"actual","value":"200"},{"name":"expected","value":"200"}],"shouldDisplayMessage":false,"stepsCount":0,"attachmentsCount":0,"hasContent":true,"attachmentStep":false}],"attachments":[],"parameters":[],"shouldDisplayMessage":false,"stepsCount":3,"attachmentsCount":0,"hasContent":true,"attachmentStep":false},{"name":"And the response body should contain a list of exactly 5 breeds","time":{"start":1749392776545,"stop":1749392776613,"duration":68},"status":"passed","steps":[{"name":"accessBreedsEndpointWithParameters (\"5\")","time":{"start":1749392776546,"stop":1749392776606,"duration":60},"status":"passed","steps":[{"name":"request (\"{ method: 'GET', url: '/breeds?limit=5', failOnStatusCode: false }\")","time":{"start":1749392776547,"stop":1749392776606,"duration":59},"status":"passed","steps":[],"attachments":[],"parameters":[],"shouldDisplayMessage":false,"stepsCount":0,"attachmentsCount":0,"hasContent":false,"attachmentStep":false}],"attachments":[],"parameters":[],"shouldDisplayMessage":false,"stepsCount":1,"attachmentsCount":0,"hasContent":true,"attachmentStep":false},{"name":"assert expected **[ Array(5) ]** to be an array","time":{"start":1749392776610,"stop":1749392776610,"duration":0},"status":"passed","steps":[],"attachments":[],"parameters":[{"name":"actual","value":"[\n  {\n    \"breed\": \"Abyssinian\",\n    \"country\": \"Ethiopia\",\n    \"origin\": \"Natural/Standard\",\n    \"coat\": \"Short\",\n    \"pattern\": \"Ticked\"\n  },\n  {\n    \"breed\": \"Aegean\",\n    \"country\": \"Greece\",\n    \"origin\": \"Natural/Standard\",\n    \"coat\": \"Semi-long\",\n    \"pattern\": \"Bi- or tri-colored\"\n  },\n  {\n    \"breed\": \"American Curl\",\n    \"country\": \"United States\",\n    \"origin\": \"Mutation\",\n    \"coat\": \"Short/Long\",\n    \"pattern\": \"All\"\n  },\n  {\n    \"breed\": \"American Bobtail\",\n    \"country\": \"United States\",\n    \"origin\": \"Mutation\",\n    \"coat\": \"Short/Long\",\n    \"pattern\": \"All\"\n  },\n  {\n    \"breed\": \"American Shorthair\",\n    \"country\": \"United States\",\n    \"origin\": \"Natural\",\n    \"coat\": \"Short\",\n    \"pattern\": \"All but colorpoint\"\n  }\n]"}],"shouldDisplayMessage":false,"stepsCount":0,"attachmentsCount":0,"hasContent":true,"attachmentStep":false},{"name":"assert expected **[ Array(5) ]** to have property **length**","time":{"start":1749392776610,"stop":1749392776610,"duration":0},"status":"passed","steps":[],"attachments":[],"parameters":[{"name":"actual","value":"[\n  {\n    \"breed\": \"Abyssinian\",\n    \"country\": \"Ethiopia\",\n    \"origin\": \"Natural/Standard\",\n    \"coat\": \"Short\",\n    \"pattern\": \"Ticked\"\n  },\n  {\n    \"breed\": \"Aegean\",\n    \"country\": \"Greece\",\n    \"origin\": \"Natural/Standard\",\n    \"coat\": \"Semi-long\",\n    \"pattern\": \"Bi- or tri-colored\"\n  },\n  {\n    \"breed\": \"American Curl\",\n    \"country\": \"United States\",\n    \"origin\": \"Mutation\",\n    \"coat\": \"Short/Long\",\n    \"pattern\": \"All\"\n  },\n  {\n    \"breed\": \"American Bobtail\",\n    \"country\": \"United States\",\n    \"origin\": \"Mutation\",\n    \"coat\": \"Short/Long\",\n    \"pattern\": \"All\"\n  },\n  {\n    \"breed\": \"American Shorthair\",\n    \"country\": \"United States\",\n    \"origin\": \"Natural\",\n    \"coat\": \"Short\",\n    \"pattern\": \"All but colorpoint\"\n  }\n]"}],"shouldDisplayMessage":false,"stepsCount":0,"attachmentsCount":0,"hasContent":true,"attachmentStep":false},{"name":"assert expected **[ Array(5) ]** to have a length of **5**","time":{"start":1749392776610,"stop":1749392776610,"duration":0},"status":"passed","steps":[],"attachments":[],"parameters":[{"name":"actual","value":"5"},{"name":"expected","value":"5"}],"shouldDisplayMessage":false,"stepsCount":0,"attachmentsCount":0,"hasContent":true,"attachmentStep":false},{"name":"assert expected **{ Object (current_page, data, ...) }** to have property **data**","time":{"start":1749392776610,"stop":1749392776610,"duration":0},"status":"passed","steps":[],"attachments":[],"parameters":[{"name":"actual","value":"{\n  \"current_page\": 1,\n  \"data\": [\n    {\n      \"breed\": \"Abyssinian\",\n      \"country\": \"Ethiopia\",\n      \"origin\": \"Natural/Standard\",\n      \"coat\": \"Short\",\n      \"pattern\": \"Ticked\"\n    },\n    {\n      \"breed\": \"Aegean\",\n      \"country\": \"Greece\",\n      \"origin\": \"Natural/Standard\",\n      \"coat\": \"Semi-long\",\n      \"pattern\": \"Bi- or tri-colored\"\n    },\n    {\n      \"breed\": \"American Curl\",\n      \"country\": \"United States\",\n      \"origin\": \"Mutation\",\n      \"coat\": \"Short/Long\",\n      \"pattern\": \"All\"\n    },\n    {\n      \"breed\": \"American Bobtail\",\n      \"country\": \"United States\",\n      \"origin\": \"Mutation\",\n      \"coat\": \"Short/Long\",\n      \"pattern\": \"All\"\n    },\n    {\n      \"breed\": \"American Shorthair\",\n      \"country\": \"United States\",\n      \"origin\": \"Natural\",\n      \"coat\": \"Short\",\n      \"pattern\": \"All but colorpoint\"\n    }\n  ],\n  \"first_page_url\": \"https://catfact.ninja/breeds?page=1\",\n  \"from\": 1,\n  \"last_page\": 20,\n  \"last_page_url\": \"https://catfact.ninja/breeds?page=20\",\n  \"links\": [\n    {\n      \"url\": null,\n      \"label\": \"Previous\",\n      \"active\": false\n    },\n    {\n      \"url\": \"https://catfact.ninja/breeds?page=1\",\n      \"label\": \"1\",\n      \"active\": true\n    },\n    {\n      \"url\": \"https://catfact.ninja/breeds?page=2\",\n      \"label\": \"2\",\n      \"active\": false\n    },\n    {\n      \"url\": \"https://catfact.ninja/breeds?page=3\",\n      \"label\": \"3\",\n      \"active\": false\n    },\n    {\n      \"url\": \"https://catfact.ninja/breeds?page=4\",\n      \"label\": \"4\",\n      \"active\": false\n    },\n    {\n      \"url\": \"https://catfact.ninja/breeds?page=5\",\n      \"label\": \"5\",\n      \"active\": false\n    },\n    {\n      \"url\": \"https://catfact.ninja/breeds?page=6\",\n      \"label\": \"6\",\n      \"active\": false\n    },\n    {\n      \"url\": \"https://catfact.ninja/breeds?page=7\",\n      \"label\": \"7\",\n      \"active\": false\n    },\n    {\n      \"url\": \"https://catfact.ninja/breeds?page=8\",\n      \"label\": \"8\",\n      \"active\": false\n    },\n    {\n      \"url\": \"https://catfact.ninja/breeds?page=9\",\n      \"label\": \"9\",\n      \"active\": false\n    },\n    {\n      \"url\": \"https://catfact.ninja/breeds?page=10\",\n      \"label\": \"10\",\n      \"active\": false\n    },\n    {\n      \"url\": null,\n      \"label\": \"...\",\n      \"active\": false\n    },\n    {\n      \"url\": \"https://catfact.ninja/breeds?page=19\",\n      \"label\": \"19\",\n      \"active\": false\n    },\n    {\n      \"url\": \"https://catfact.ninja/breeds?page=20\",\n      \"label\": \"20\",\n      \"active\": false\n    },\n    {\n      \"url\": \"https://catfact.ninja/breeds?page=2\",\n      \"label\": \"Next\",\n      \"active\": false\n    }\n  ],\n  \"next_page_url\": \"https://catfact.ninja/breeds?page=2\",\n  \"path\": \"https://catfact.ninja/breeds\",\n  \"per_page\": 5,\n  \"prev_page_url\": null,\n  \"to\": 5,\n  \"total\": 98\n}"}],"shouldDisplayMessage":false,"stepsCount":0,"attachmentsCount":0,"hasContent":true,"attachmentStep":false}],"attachments":[],"parameters":[],"shouldDisplayMessage":false,"stepsCount":6,"attachmentsCount":0,"hasContent":true,"attachmentStep":false}],"attachments":[],"parameters":[],"shouldDisplayMessage":false,"stepsCount":19,"attachmentsCount":0,"hasContent":true,"attachmentStep":false},"afterStages":[],"labels":[{"name":"package","value":"cypress.e2e.features.breeds_happy.feature"},{"name":"suite","value":"Get Cat Breeds from Cat Facts API"},{"name":"feature","value":"Get Cat Breeds from Cat Facts API"},{"name":"resultFormat","value":"allure2"}],"parameters":[],"links":[],"hidden":false,"retry":false,"extra":{"severity":"normal","retries":[],"categories":[],"tags":[]},"source":"e4b3defb00f8f673.json","parameterValues":[]}