{"uid":"ff7bf8854c163cf","name":"Send GET request to /breeds with a valid limit parameter","fullName":"Send GET request to /breeds with a valid limit parameter","historyId":"12ff21c90065fffdc91f4e61cd6e893f","time":{"start":1749390561008,"stop":1749390561478,"duration":470},"status":"passed","flaky":false,"newFailed":false,"newBroken":false,"newPassed":false,"retriesCount":0,"retriesStatusChange":false,"beforeStages":[],"testStage":{"status":"passed","steps":[{"name":"Given the API is available","time":{"start":1749390561047,"stop":1749390561478,"duration":431},"status":"passed","steps":[{"name":"accessAPI","time":{"start":1749390561048,"stop":1749390561139,"duration":91},"status":"passed","steps":[{"name":"request (\"{ method: 'GET', url: '/' }\")","time":{"start":1749390561049,"stop":1749390561139,"duration":90},"status":"passed","steps":[],"attachments":[],"parameters":[],"shouldDisplayMessage":false,"stepsCount":0,"attachmentsCount":0,"hasContent":false,"attachmentStep":false}],"attachments":[],"parameters":[],"shouldDisplayMessage":false,"stepsCount":1,"attachmentsCount":0,"hasContent":true,"attachmentStep":false},{"name":"assert expected **200** to equal **200**","time":{"start":1749390561140,"stop":1749390561140,"duration":0},"status":"passed","steps":[],"attachments":[],"parameters":[{"name":"actual","value":"200"},{"name":"expected","value":"200"}],"shouldDisplayMessage":false,"stepsCount":0,"attachmentsCount":0,"hasContent":true,"attachmentStep":false}],"attachments":[],"parameters":[],"shouldDisplayMessage":false,"stepsCount":3,"attachmentsCount":0,"hasContent":true,"attachmentStep":false},{"name":"When I send a GET request to breeds?limit=5","time":{"start":1749390561144,"stop":1749390561478,"duration":334},"status":"passed","steps":[{"name":"accessBreedsEndpointWithParameters (\"5\")","time":{"start":1749390561145,"stop":1749390561250,"duration":105},"status":"passed","steps":[{"name":"request (\"{ method: 'GET', url: '/breeds?limit=5', failOnStatusCode: false }\")","time":{"start":1749390561146,"stop":1749390561250,"duration":104},"status":"passed","steps":[],"attachments":[],"parameters":[],"shouldDisplayMessage":false,"stepsCount":0,"attachmentsCount":0,"hasContent":false,"attachmentStep":false}],"attachments":[],"parameters":[],"shouldDisplayMessage":false,"stepsCount":1,"attachmentsCount":0,"hasContent":true,"attachmentStep":false},{"name":"as (\"breedsResponse\")","time":{"start":1749390561250,"stop":1749390561251,"duration":1},"status":"passed","steps":[],"attachments":[],"parameters":[],"shouldDisplayMessage":false,"stepsCount":0,"attachmentsCount":0,"hasContent":false,"attachmentStep":false}],"attachments":[],"parameters":[],"shouldDisplayMessage":false,"stepsCount":3,"attachmentsCount":0,"hasContent":true,"attachmentStep":false},{"name":"Then the response status code should be 200","time":{"start":1749390561254,"stop":1749390561478,"duration":224},"status":"passed","steps":[{"name":"accessBreedsEndpoint","time":{"start":1749390561256,"stop":1749390561363,"duration":107},"status":"passed","steps":[{"name":"request (\"{ method: 'GET', url: '/breeds' }\")","time":{"start":1749390561256,"stop":1749390561362,"duration":106},"status":"passed","steps":[],"attachments":[],"parameters":[],"shouldDisplayMessage":false,"stepsCount":0,"attachmentsCount":0,"hasContent":false,"attachmentStep":false}],"attachments":[],"parameters":[],"shouldDisplayMessage":false,"stepsCount":1,"attachmentsCount":0,"hasContent":true,"attachmentStep":false},{"name":"assert expected **200** to equal **200**","time":{"start":1749390561364,"stop":1749390561364,"duration":0},"status":"passed","steps":[],"attachments":[],"parameters":[{"name":"actual","value":"200"},{"name":"expected","value":"200"}],"shouldDisplayMessage":false,"stepsCount":0,"attachmentsCount":0,"hasContent":true,"attachmentStep":false}],"attachments":[],"parameters":[],"shouldDisplayMessage":false,"stepsCount":3,"attachmentsCount":0,"hasContent":true,"attachmentStep":false},{"name":"And the response body should contain a list of exactly 5 breeds","time":{"start":1749390561367,"stop":1749390561478,"duration":111},"status":"passed","steps":[{"name":"accessBreedsEndpointWithParameters (\"5\")","time":{"start":1749390561369,"stop":1749390561471,"duration":102},"status":"passed","steps":[{"name":"request (\"{ method: 'GET', url: '/breeds?limit=5', failOnStatusCode: false }\")","time":{"start":1749390561370,"stop":1749390561471,"duration":101},"status":"passed","steps":[],"attachments":[],"parameters":[],"shouldDisplayMessage":false,"stepsCount":0,"attachmentsCount":0,"hasContent":false,"attachmentStep":false}],"attachments":[],"parameters":[],"shouldDisplayMessage":false,"stepsCount":1,"attachmentsCount":0,"hasContent":true,"attachmentStep":false},{"name":"assert expected **[ Array(5) ]** to be an array","time":{"start":1749390561476,"stop":1749390561476,"duration":0},"status":"passed","steps":[],"attachments":[],"parameters":[{"name":"actual","value":"[\n  {\n    \"breed\": \"Abyssinian\",\n    \"country\": \"Ethiopia\",\n    \"origin\": \"Natural/Standard\",\n    \"coat\": \"Short\",\n    \"pattern\": \"Ticked\"\n  },\n  {\n    \"breed\": \"Aegean\",\n    \"country\": \"Greece\",\n    \"origin\": \"Natural/Standard\",\n    \"coat\": \"Semi-long\",\n    \"pattern\": \"Bi- or tri-colored\"\n  },\n  {\n    \"breed\": \"American Curl\",\n    \"country\": \"United States\",\n    \"origin\": \"Mutation\",\n    \"coat\": \"Short/Long\",\n    \"pattern\": \"All\"\n  },\n  {\n    \"breed\": \"American Bobtail\",\n    \"country\": \"United States\",\n    \"origin\": \"Mutation\",\n    \"coat\": \"Short/Long\",\n    \"pattern\": \"All\"\n  },\n  {\n    \"breed\": \"American Shorthair\",\n    \"country\": \"United States\",\n    \"origin\": \"Natural\",\n    \"coat\": \"Short\",\n    \"pattern\": \"All but colorpoint\"\n  }\n]"}],"shouldDisplayMessage":false,"stepsCount":0,"attachmentsCount":0,"hasContent":true,"attachmentStep":false},{"name":"assert expected **[ Array(5) ]** to have property **length**","time":{"start":1749390561476,"stop":1749390561476,"duration":0},"status":"passed","steps":[],"attachments":[],"parameters":[{"name":"actual","value":"[\n  {\n    \"breed\": \"Abyssinian\",\n    \"country\": \"Ethiopia\",\n    \"origin\": \"Natural/Standard\",\n    \"coat\": \"Short\",\n    \"pattern\": \"Ticked\"\n  },\n  {\n    \"breed\": \"Aegean\",\n    \"country\": \"Greece\",\n    \"origin\": \"Natural/Standard\",\n    \"coat\": \"Semi-long\",\n    \"pattern\": \"Bi- or tri-colored\"\n  },\n  {\n    \"breed\": \"American Curl\",\n    \"country\": \"United States\",\n    \"origin\": \"Mutation\",\n    \"coat\": \"Short/Long\",\n    \"pattern\": \"All\"\n  },\n  {\n    \"breed\": \"American Bobtail\",\n    \"country\": \"United States\",\n    \"origin\": \"Mutation\",\n    \"coat\": \"Short/Long\",\n    \"pattern\": \"All\"\n  },\n  {\n    \"breed\": \"American Shorthair\",\n    \"country\": \"United States\",\n    \"origin\": \"Natural\",\n    \"coat\": \"Short\",\n    \"pattern\": \"All but colorpoint\"\n  }\n]"}],"shouldDisplayMessage":false,"stepsCount":0,"attachmentsCount":0,"hasContent":true,"attachmentStep":false},{"name":"assert expected **[ Array(5) ]** to have a length of **5**","time":{"start":1749390561476,"stop":1749390561476,"duration":0},"status":"passed","steps":[],"attachments":[],"parameters":[{"name":"actual","value":"5"},{"name":"expected","value":"5"}],"shouldDisplayMessage":false,"stepsCount":0,"attachmentsCount":0,"hasContent":true,"attachmentStep":false},{"name":"assert expected **{ Object (current_page, data, ...) }** to have property **data**","time":{"start":1749390561476,"stop":1749390561476,"duration":0},"status":"passed","steps":[],"attachments":[],"parameters":[{"name":"actual","value":"{\n  \"current_page\": 1,\n  \"data\": [\n    {\n      \"breed\": \"Abyssinian\",\n      \"country\": \"Ethiopia\",\n      \"origin\": \"Natural/Standard\",\n      \"coat\": \"Short\",\n      \"pattern\": \"Ticked\"\n    },\n    {\n      \"breed\": \"Aegean\",\n      \"country\": \"Greece\",\n      \"origin\": \"Natural/Standard\",\n      \"coat\": \"Semi-long\",\n      \"pattern\": \"Bi- or tri-colored\"\n    },\n    {\n      \"breed\": \"American Curl\",\n      \"country\": \"United States\",\n      \"origin\": \"Mutation\",\n      \"coat\": \"Short/Long\",\n      \"pattern\": \"All\"\n    },\n    {\n      \"breed\": \"American Bobtail\",\n      \"country\": \"United States\",\n      \"origin\": \"Mutation\",\n      \"coat\": \"Short/Long\",\n      \"pattern\": \"All\"\n    },\n    {\n      \"breed\": \"American Shorthair\",\n      \"country\": \"United States\",\n      \"origin\": \"Natural\",\n      \"coat\": \"Short\",\n      \"pattern\": \"All but colorpoint\"\n    }\n  ],\n  \"first_page_url\": \"https://catfact.ninja/breeds?page=1\",\n  \"from\": 1,\n  \"last_page\": 20,\n  \"last_page_url\": \"https://catfact.ninja/breeds?page=20\",\n  \"links\": [\n    {\n      \"url\": null,\n      \"label\": \"Previous\",\n      \"active\": false\n    },\n    {\n      \"url\": \"https://catfact.ninja/breeds?page=1\",\n      \"label\": \"1\",\n      \"active\": true\n    },\n    {\n      \"url\": \"https://catfact.ninja/breeds?page=2\",\n      \"label\": \"2\",\n      \"active\": false\n    },\n    {\n      \"url\": \"https://catfact.ninja/breeds?page=3\",\n      \"label\": \"3\",\n      \"active\": false\n    },\n    {\n      \"url\": \"https://catfact.ninja/breeds?page=4\",\n      \"label\": \"4\",\n      \"active\": false\n    },\n    {\n      \"url\": \"https://catfact.ninja/breeds?page=5\",\n      \"label\": \"5\",\n      \"active\": false\n    },\n    {\n      \"url\": \"https://catfact.ninja/breeds?page=6\",\n      \"label\": \"6\",\n      \"active\": false\n    },\n    {\n      \"url\": \"https://catfact.ninja/breeds?page=7\",\n      \"label\": \"7\",\n      \"active\": false\n    },\n    {\n      \"url\": \"https://catfact.ninja/breeds?page=8\",\n      \"label\": \"8\",\n      \"active\": false\n    },\n    {\n      \"url\": \"https://catfact.ninja/breeds?page=9\",\n      \"label\": \"9\",\n      \"active\": false\n    },\n    {\n      \"url\": \"https://catfact.ninja/breeds?page=10\",\n      \"label\": \"10\",\n      \"active\": false\n    },\n    {\n      \"url\": null,\n      \"label\": \"...\",\n      \"active\": false\n    },\n    {\n      \"url\": \"https://catfact.ninja/breeds?page=19\",\n      \"label\": \"19\",\n      \"active\": false\n    },\n    {\n      \"url\": \"https://catfact.ninja/breeds?page=20\",\n      \"label\": \"20\",\n      \"active\": false\n    },\n    {\n      \"url\": \"https://catfact.ninja/breeds?page=2\",\n      \"label\": \"Next\",\n      \"active\": false\n    }\n  ],\n  \"next_page_url\": \"https://catfact.ninja/breeds?page=2\",\n  \"path\": \"https://catfact.ninja/breeds\",\n  \"per_page\": 5,\n  \"prev_page_url\": null,\n  \"to\": 5,\n  \"total\": 98\n}"}],"shouldDisplayMessage":false,"stepsCount":0,"attachmentsCount":0,"hasContent":true,"attachmentStep":false}],"attachments":[],"parameters":[],"shouldDisplayMessage":false,"stepsCount":6,"attachmentsCount":0,"hasContent":true,"attachmentStep":false}],"attachments":[],"parameters":[],"shouldDisplayMessage":false,"stepsCount":19,"attachmentsCount":0,"hasContent":true,"attachmentStep":false},"afterStages":[],"labels":[{"name":"package","value":"cypress.e2e.features.breeds_happy.feature"},{"name":"suite","value":"Get Cat Breeds from Cat Facts API"},{"name":"feature","value":"Get Cat Breeds from Cat Facts API"},{"name":"resultFormat","value":"allure2"}],"parameters":[],"links":[],"hidden":false,"retry":false,"extra":{"severity":"normal","retries":[],"categories":[],"tags":[]},"source":"ff7bf8854c163cf.json","parameterValues":[]}